<svg viewBox="0 0 43 43" fill="none" xmlns="http://www.w3.org/2000/svg">
<circle cx="21.5" cy="21.5" r="21.5" fill="#4FB999"/>
<path d="M11 22L18 29L33.5 13.5" stroke="white" stroke-width="3" stroke-linecap="round"/>
</svg>
